I2C/3. five_bytes_img/A0001CH2.CSV

Memory Length,4000,
Trigger Level,1.51900e+00,
Source,CH2,
Probe,1.0X,
Vertical Units,V,
Vertical Scale,2.00000e+00,
Vertical Position,-1.92000e+00,
Horizontal Units,S,
Horizontal Scale,2.50000e-05,
Horizontal Position,8.4000000e-05,
Horizontal Mode,Main,
Sampling Period,1.00000e-07,
Firmware,V1.14,
Time, ,
Mode,Fast,
Waveform Data,
42,
42,
42,
42,
42,
42,
42,
42,
42,
42,
42,
41,
41,
42,
42,
41,
41,
42,
42,
41,
41,
42,
42,
42,
42,
42,
42,
41,
41,
42,
42,
41,
41,
41,
41,
42,
42,
42,
42,
41,
41,
42,
42,
41,
41,
42,
42,
42,
42,
42,
42,
42,
42,
42,
42,
42,
42,
42,
42,
41,
41,
42,
42,
41,
41,
42,
42,
42,
42,
41,
41,
42,
42,
42,
42,
42,
42,
42,
42,
41,
41,
41,
41,
41,
41,
42,
42,
42,
42,
42,
42,
42,
42,
41,
41,
42,
42,
42,
42,
42,
42,
42,
42,
42,
42,
41,
41,
42,
42,
41,
41,
41,
41,
42,
42,
41,
41,
41,
41,
42,
42,
42,
42,
42,
42,
41,
41,
41,
41,
42,
42,
42,
42,
42,
42,
42,
42,
41,
41,
42,
42,
42,
42,
41,
41,
42,
42,
42,
42,
41,
41,
41,
41,
41,
41,
42,
42,
42,
42,
42,
42,
41,
41,
42,
42,
42,
42,
42,
42,
41,
41,
42,
42,
42,
42,
41,
41,
42,
42,
42,
42,
42,
42,
42,
42,
42,
42,
41,
41,
41,
41,
42,
42,
42,
42,
41,
41,
42,
42,
41,
41,
41,
41,
42,
42,
42,
42,
42,
42,
42,
42,
42,
42,
41,
41,
42,
42,
42,
42,
41,
41,
42,
42,
42,
42,
41,
41,
42,
42,
42,
42,
42,
42,
42,
42,
42,
42,
42,
42,
41,
41,
41,
41,
42,
42,
42,
42,
42,
42,
42,
42,
41,
41,
42,
42,
42,
42,
42,
42,
42,
42,
42,
42,
41,
41,
42,
42,
42,
42,
42,
42,
42,
42,
42,
42,
42,
42,
41,
41,
41,
41,
41,
41,
41,
41,
42,
42,
42,
42,
42,
42,
42,
42,
41,
41,
42,
42,
42,
42,
42,
42,
42,
42,
41,
41,
42,
42,
42,
42,
42,
42,
41,
41,
42,
42,
42,
42,
42,
42,
42,
42,
41,
41,
41,
41,
42,
42,
42,
42,
41,
41,
42,
42,
41,
41,
42,
42,
42,
42,
42,
42,
41,
41,
42,
42,
42,
42,
42,
42,
42,
42,
41,
41,
41,
41,
42,
42,
42,
42,
42,
42,
42,
42,
42,
42,
42,
42,
42,
42,
42,
42,
42,
42,
41,
41,
41,
41,
42,
42,
42,
42,
41,
41,
42,
42,
42,
42,
42,
42,
42,
42,
42,
42,
42,
42,
42,
42,
41,
41,
41,
41,
41,
41,
42,
42,
42,
42,
41,
41,
42,
42,
41,
41,
42,
42,
41,
41,
42,
42,
42,
42,
41,
41,
42,
42,
42,
42,
41,
41,
42,
42,
42,
42,
42,
42,
42,
42,
42,
42,
42,
42,
42,
42,
42,
42,
42,
42,
42,
42,
42,
42,
42,
42,
41,
41,
42,
42,
42,
42,
42,
42,
42,
42,
41,
41,
42,
42,
41,
41,
42,
42,
42,
42,
42,
42,
42,
42,
41,
41,
42,
42,
42,
42,
42,
42,
42,
42,
42,
42,
42,
42,
42,
42,
42,
42,
42,
42,
42,
42,
42,
42,
41,
41,
41,
41,
42,
42,
42,
42,
42,
42,
42,
42,
42,
42,
42,
42,
42,
42,
41,
41,
41,
41,
41,
41,
42,
42,
42,
42,
42,
42,
42,
42,
42,
42,
41,
41,
42,
42,
42,
42,
41,
41,
42,
42,
41,
41,
42,
42,
41,
41,
42,
42,
41,
41,
41,
41,
42,
42,
42,
42,
42,
42,
42,
42,
41,
41,
41,
41,
42,
42,
42,
42,
42,
42,
42,
42,
42,
42,
42,
42,
42,
42,
41,
41,
41,
41,
41,
41,
42,
42,
41,
41,
42,
42,
41,
41,
42,
42,
42,
42,
42,
42,
42,
42,
42,
42,
42,
42,
42,
42,
42,
42,
42,
42,
41,
41,
42,
42,
42,
42,
42,
42,
42,
42,
42,
42,
42,
42,
42,
42,
42,
42,
42,
42,
41,
41,
41,
41,
42,
42,
42,
42,
42,
42,
42,
42,
41,
41,
41,
41,
41,
41,
41,
41,
42,
42,
42,
42,
41,
41,
42,
42,
41,
41,
42,
42,
42,
42,
41,
41,
42,
42,
42,
42,
42,
42,
42,
42,
41,
41,
41,
41,
41,
41,
42,
42,
41,
41,
42,
42,
42,
42,
41,
41,
42,
42,
42,
42,
42,
42,
42,
42,
42,
42,
42,
42,
42,
42,
41,
41,
42,
42,
42,
42,
41,
41,
41,
41,
42,
42,
41,
41,
41,
41,
42,
42,
42,
42,
42,
42,
41,
41,
42,
42,
42,
42,
42,
42,
41,
41,
42,
42,
41,
41,
41,
41,
42,
42,
42,
42,
42,
42,
41,
41,
41,
41,
42,
42,
42,
42,
41,
41,
42,
42,
42,
42,
42,
42,
41,
41,
42,
42,
41,
41,
41,
41,
42,
42,
42,
42,
42,
42,
42,
42,
42,
42,
42,
42,
41,
41,
41,
41,
42,
42,
42,
42,
42,
42,
42,
42,
41,
41,
41,
41,
42,
42,
42,
42,
42,
42,
41,
41,
42,
42,
42,
42,
42,
42,
41,
41,
42,
42,
42,
42,
42,
42,
42,
42,
41,
41,
42,
42,
42,
42,
42,
42,
42,
42,
42,
42,
42,
42,
42,
42,
42,
42,
41,
41,
41,
41,
42,
42,
42,
42,
42,
42,
41,
41,
42,
42,
42,
42,
42,
42,
42,
42,
42,
42,
41,
41,
42,
42,
42,
42,
42,
42,
42,
42,
42,
42,
42,
42,
42,
42,
42,
42,
42,
42,
41,
41,
42,
42,
41,
41,
42,
42,
42,
42,
41,
41,
42,
42,
42,
42,
42,
42,
41,
41,
42,
42,
42,
42,
41,
41,
42,
42,
41,
41,
41,
41,
42,
42,
42,
42,
41,
41,
42,
42,
41,
41,
42,
42,
41,
41,
42,
42,
41,
41,
42,
42,
42,
42,
42,
42,
41,
41,
42,
42,
41,
41,
42,
42,
42,
42,
42,
42,
41,
41,
42,
42,
42,
42,
41,
41,
41,
41,
41,
41,
42,
42,
42,
42,
42,
42,
42,
42,
42,
42,
41,
41,
42,
42,
41,
41,
42,
42,
42,
42,
42,
42,
42,
42,
42,
42,
42,
42,
42,
42,
42,
42,
41,
41,
42,
42,
42,
42,
42,
42,
42,
42,
41,
41,
42,
42,
42,
42,
42,
42,
42,
42,
42,
42,
41,
41,
41,
41,
42,
42,
41,
41,
42,
1,
2,
2,
2,
2,
2,
2,
1,
1,
1,
1,
1,
1,
2,
2,
2,
2,
0,
0,
1,
1,
2,
2,
0,
0,
2,
2,
1,
1,
0,
0,
1,
1,
2,
2,
1,
1,
1,
1,
1,
1,
1,
1,
0,
0,
1,
1,
1,
1,
2,
27,
28,
28,
37,
37,
40,
40,
41,
41,
41,
41,
42,
42,
41,
41,
42,
42,
42,
42,
42,
42,
41,
41,
42,
42,
41,
41,
42,
42,
42,
42,
41,
41,
41,
41,
42,
42,
41,
41,
42,
42,
41,
41,
42,
42,
42,
42,
42,
42,
42,
42,
42,
1,
2,
2,
1,
1,
1,
1,
0,
0,
1,
1,
2,
2,
1,
1,
0,
0,
0,
0,
1,
1,
2,
2,
2,
2,
1,
1,
2,
2,
1,
1,
1,
1,
0,
0,
1,
1,
1,
1,
1,
1,
1,
1,
1,
1,
0,
0,
2,
2,
9,
30,
30,
30,
39,
39,
40,
40,
41,
41,
42,
42,
42,
42,
41,
41,
42,
42,
41,
41,
41,
41,
41,
41,
42,
42,
41,
41,
41,
41,
42,
42,
42,
42,
42,
42,
41,
41,
41,
41,
42,
42,
41,
41,
41,
41,
41,
41,
42,
42,
42,
0,
1,
1,
1,
1,
1,
1,
1,
1,
1,
1,
1,
1,
1,
1,
2,
2,
2,
2,
1,
1,
2,
2,
1,
1,
2,
2,
2,
2,
1,
1,
1,
1,
0,
0,
1,
1,
1,
1,
1,
1,
1,
1,
0,
0,
1,
1,
0,
0,
2,
19,
19,
35,
35,
35,
40,
40,
40,
40,
42,
42,
42,
42,
42,
42,
41,
41,
41,
41,
41,
41,
42,
42,
42,
42,
41,
41,
42,
42,
41,
41,
42,
42,
42,
42,
41,
41,
42,
42,
41,
41,
41,
41,
41,
41,
41,
41,
42,
42,
42,
42,
41,
0,
2,
2,
1,
1,
1,
1,
1,
1,
0,
0,
1,
1,
2,
2,
2,
2,
1,
1,
0,
0,
1,
1,
0,
0,
0,
0,
1,
1,
1,
1,
1,
1,
1,
1,
1,
1,
2,
2,
1,
1,
1,
1,
1,
1,
1,
1,
1,
1,
2,
24,
26,
26,
36,
36,
40,
40,
40,
40,
42,
42,
42,
42,
41,
41,
41,
41,
42,
42,
42,
42,
41,
41,
42,
42,
42,
42,
41,
41,
42,
42,
42,
42,
41,
41,
41,
41,
42,
42,
41,
41,
42,
42,
41,
41,
41,
41,
41,
41,
41,
25,
12,
0,
1,
1,
1,
1,
1,
1,
1,
1,
1,
1,
1,
1,
0,
0,
2,
2,
1,
1,
0,
0,
1,
1,
1,
1,
1,
1,
1,
1,
1,
1,
1,
1,
1,
1,
1,
1,
1,
1,
1,
1,
0,
0,
1,
1,
0,
0,
1,
1,
11,
31,
31,
31,
39,
39,
40,
40,
41,
41,
41,
41,
42,
42,
42,
42,
42,
42,
42,
42,
42,
42,
41,
41,
42,
42,
41,
41,
42,
42,
42,
42,
42,
42,
42,
42,
42,
42,
41,
41,
42,
42,
41,
41,
41,
41,
42,
42,
43,
43,
42,
1,
2,
2,
1,
1,
2,
2,
1,
1,
1,
1,
0,
0,
1,
1,
2,
2,
1,
1,
1,
1,
2,
2,
1,
1,
2,
2,
2,
2,
1,
1,
0,
0,
1,
1,
1,
1,
1,
1,
2,
2,
1,
1,
1,
1,
1,
1,
2,
2,
1,
17,
17,
33,
34,
34,
40,
40,
41,
41,
42,
42,
42,
42,
41,
41,
42,
42,
42,
42,
42,
42,
41,
41,
42,
42,
42,
42,
42,
42,
42,
42,
42,
42,
42,
42,
41,
41,
42,
42,
42,
42,
42,
42,
42,
42,
42,
42,
42,
42,
41,
41,
42,
0,
2,
2,
2,
2,
1,
1,
1,
1,
2,
2,
1,
1,
1,
1,
1,
1,
2,
2,
1,
1,
0,
0,
1,
1,
0,
0,
1,
1,
1,
1,
1,
1,
1,
1,
1,
1,
1,
1,
2,
2,
0,
0,
0,
0,
0,
0,
0,
0,
1,
21,
22,
37,
37,
37,
40,
40,
41,
41,
41,
41,
41,
41,
42,
42,
42,
42,
41,
41,
42,
42,
42,
42,
41,
41,
41,
41,
42,
42,
41,
41,
42,
42,
42,
42,
42,
42,
42,
42,
42,
42,
42,
42,
42,
42,
41,
41,
42,
42,
42,
42,
42,
0,
1,
1,
1,
1,
2,
2,
1,
1,
1,
1,
0,
0,
2,
2,
1,
1,
0,
0,
1,
1,
1,
1,
1,
1,
2,
2,
1,
1,
2,
2,
1,
1,
1,
1,
1,
1,
1,
1,
1,
1,
1,
1,
0,
0,
1,
1,
1,
1,
8,
27,
27,
39,
39,
39,
40,
40,
41,
41,
42,
42,
41,
41,
41,
41,
41,
41,
42,
42,
40,
40,
41,
41,
42,
42,
41,
41,
41,
41,
42,
42,
41,
41,
42,
42,
41,
41,
42,
42,
42,
42,
42,
42,
42,
42,
42,
42,
41,
41,
42,
1,
2,
2,
1,
1,
2,
2,
2,
2,
2,
2,
1,
1,
1,
1,
1,
1,
2,
2,
0,
0,
1,
1,
2,
2,
1,
1,
1,
1,
0,
0,
0,
0,
1,
1,
1,
1,
1,
1,
2,
2,
0,
0,
0,
0,
1,
1,
2,
2,
0,
17,
19,
33,
33,
33,
39,
39,
40,
40,
40,
40,
41,
41,
41,
41,
42,
42,
42,
42,
42,
42,
41,
41,
41,
41,
42,
42,
42,
42,
42,
42,
41,
41,
42,
42,
41,
41,
41,
41,
41,
41,
41,
41,
42,
42,
42,
42,
41,
41,
41,
41,
42,
1,
1,
1,
1,
1,
2,
2,
2,
2,
1,
1,
1,
1,
2,
2,
2,
2,
1,
1,
1,
1,
1,
1,
0,
0,
0,
0,
0,
0,
1,
1,
2,
2,
1,
1,
1,
1,
2,
2,
1,
1,
1,
1,
0,
0,
0,
0,
1,
1,
1,
19,
19,
37,
38,
38,
40,
40,
41,
41,
41,
41,
41,
41,
41,
41,
42,
42,
42,
42,
41,
41,
42,
42,
42,
42,
41,
41,
41,
41,
42,
42,
41,
41,
41,
41,
42,
42,
42,
42,
41,
41,
42,
42,
42,
42,
42,
42,
42,
42,
41,
41,
42,
0,
2,
2,
2,
2,
1,
1,
2,
2,
1,
1,
1,
1,
1,
1,
1,
1,
2,
2,
1,
1,
1,
1,
2,
2,
2,
2,
1,
1,
2,
2,
1,
1,
1,
1,
1,
1,
1,
1,
1,
1,
1,
1,
1,
1,
0,
0,
0,
0,
1,
28,
28,
28,
38,
38,
40,
40,
41,
41,
42,
42,
41,
41,
41,
41,
41,
41,
42,
42,
41,
41,
41,
41,
41,
41,
41,
41,
42,
42,
42,
42,
42,
42,
41,
41,
42,
42,
42,
42,
42,
42,
41,
41,
42,
42,
42,
42,
41,
41,
42,
1,
2,
2,
2,
2,
1,
1,
1,
1,
1,
1,
2,
2,
1,
1,
1,
1,
2,
2,
2,
2,
0,
0,
1,
1,
0,
0,
1,
1,
0,
0,
1,
1,
1,
1,
1,
1,
1,
1,
2,
2,
1,
1,
2,
2,
1,
1,
1,
1,
1,
1,
13,
31,
32,
32,
39,
39,
42,
42,
42,
42,
42,
42,
41,
41,
41,
41,
41,
41,
41,
41,
42,
42,
41,
41,
41,
41,
42,
42,
42,
42,
42,
42,
41,
41,
41,
41,
42,
42,
42,
42,
42,
42,
41,
41,
42,
42,
42,
42,
42,
42,
42,
0,
1,
1,
2,
2,
1,
1,
1,
1,
2,
2,
1,
1,
1,
1,
1,
1,
2,
2,
1,
1,
1,
1,
1,
1,
2,
2,
0,
0,
0,
0,
0,
0,
0,
0,
0,
0,
1,
1,
1,
1,
2,
2,
1,
1,
1,
1,
1,
1,
1,
23,
23,
36,
37,
37,
40,
40,
41,
41,
42,
42,
42,
42,
42,
42,
42,
42,
41,
41,
42,
42,
41,
41,
42,
42,
42,
42,
41,
41,
41,
41,
41,
41,
42,
42,
42,
42,
41,
41,
42,
42,
42,
42,
42,
42,
42,
42,
42,
42,
41,
41,
42,
1,
2,
2,
1,
1,
2,
2,
2,
2,
2,
2,
2,
2,
1,
1,
1,
1,
0,
0,
1,
1,
2,
2,
0,
0,
2,
2,
1,
1,
1,
1,
1,
1,
0,
0,
1,
1,
2,
2,
1,
1,
2,
2,
1,
1,
2,
2,
0,
0,
1,
26,
27,
38,
38,
38,
40,
40,
41,
41,
41,
41,
41,
41,
41,
41,
42,
42,
42,
42,
41,
41,
41,
41,
41,
41,
41,
41,
42,
42,
42,
42,
42,
42,
42,
42,
42,
42,
42,
42,
41,
41,
41,
41,
42,
42,
42,
42,
42,
42,
41,
0,
2,
2,
2,
2,
2,
2,
1,
1,
2,
2,
0,
0,
1,
1,
2,
2,
1,
1,
2,
2,
1,
1,
2,
2,
1,
1,
1,
1,
1,
1,
1,
1,
1,
1,
2,
2,
0,
0,
1,
1,
2,
2,
0,
0,
2,
2,
1,
1,
0,
0,
7,
33,
32,
32,
39,
39,
41,
41,
42,
42,
41,
41,
41,
41,
42,
42,
41,
41,
41,
41,
42,
42,
42,
42,
42,
42,
41,
41,
42,
42,
41,
41,
41,
41,
41,
41,
42,
42,
42,
42,
41,
41,
41,
41,
41,
41,
42,
42,
42,
42,
42,
1,
1,
1,
2,
2,
2,
2,
1,
1,
1,
1,
1,
1,
1,
1,
1,
1,
1,
1,
2,
2,
1,
1,
2,
2,
0,
0,
1,
1,
0,
0,
0,
0,
1,
1,
2,
2,
1,
1,
0,
0,
1,
1,
2,
2,
1,
1,
1,
1,
1,
16,
16,
35,
35,
35,
40,
40,
41,
41,
42,
42,
41,
41,
41,
41,
42,
42,
41,
41,
41,
41,
41,
41,
42,
42,
42,
42,
42,
42,
41,
41,
42,
42,
41,
41,
42,
42,
41,
41,
41,
41,
42,
42,
41,
41,
42,
42,
42,
42,
41,
41,
42,
0,
1,
1,
2,
2,
2,
2,
1,
1,
1,
1,
2,
2,
1,
1,
2,
2,
1,
1,
0,
0,
0,
0,
1,
1,
0,
0,
1,
1,
1,
1,
1,
1,
0,
0,
1,
1,
0,
0,
2,
2,
1,
1,
1,
1,
1,
1,
1,
1,
2,
24,
24,
37,
38,
38,
40,
40,
41,
41,
42,
42,
42,
42,
42,
42,
42,
42,
42,
42,
42,
42,
42,
42,
41,
41,
42,
42,
42,
42,
42,
42,
42,
42,
42,
42,
41,
41,
42,
42,
41,
41,
42,
42,
42,
42,
42,
42,
42,
42,
42,
5,
5,
5,
1,
1,
1,
1,
2,
2,
1,
1,
0,
0,
0,
0,
2,
2,
1,
1,
1,
1,
2,
2,
2,
2,
1,
1,
0,
0,
1,
1,
0,
0,
1,
1,
0,
0,
1,
1,
0,
0,
0,
0,
0,
0,
1,
1,
1,
1,
1,
1,
1,
32,
33,
33,
38,
38,
41,
41,
41,
41,
41,
41,
42,
42,
42,
42,
41,
41,
42,
42,
42,
42,
42,
42,
41,
41,
41,
41,
42,
42,
41,
41,
42,
42,
41,
41,
41,
41,
42,
42,
42,
42,
42,
42,
42,
42,
41,
41,
42,
42,
42,
1,
2,
2,
1,
1,
1,
1,
1,
1,
2,
2,
2,
2,
1,
1,
1,
1,
1,
1,
0,
0,
1,
1,
2,
2,
1,
1,
1,
1,
1,
1,
2,
2,
1,
1,
0,
0,
1,
1,
1,
1,
1,
1,
0,
0,
1,
1,
0,
0,
1,
16,
16,
35,
35,
35,
39,
39,
41,
41,
41,
41,
42,
42,
41,
41,
42,
42,
42,
42,
41,
41,
42,
42,
42,
42,
41,
41,
41,
41,
42,
42,
42,
42,
42,
42,
41,
41,
42,
42,
42,
42,
42,
42,
42,
42,
41,
41,
41,
41,
41,
41,
42,
0,
2,
2,
2,
2,
2,
2,
1,
1,
2,
2,
1,
1,
1,
1,
2,
2,
1,
1,
2,
2,
1,
1,
1,
1,
2,
2,
1,
1,
1,
1,
1,
1,
1,
1,
2,
2,
1,
1,
1,
1,
1,
1,
2,
2,
0,
0,
1,
1,
1,
22,
23,
36,
36,
36,
40,
40,
41,
41,
41,
41,
41,
41,
41,
41,
42,
42,
41,
41,
42,
42,
42,
42,
42,
42,
42,
42,
42,
42,
42,
42,
42,
42,
42,
42,
42,
42,
42,
42,
41,
41,
42,
42,
41,
41,
42,
42,
41,
41,
42,
16,
16,
1,
2,
2,
0,
0,
2,
2,
1,
1,
1,
1,
2,
2,
2,
2,
2,
2,
1,
1,
1,
1,
1,
1,
0,
0,
1,
1,
0,
0,
0,
0,
1,
1,
1,
1,
2,
2,
0,
0,
1,
1,
1,
1,
0,
0,
2,
2,
2,
2,
5,
31,
31,
31,
38,
38,
40,
40,
41,
41,
41,
41,
41,
41,
41,
41,
41,
41,
42,
42,
42,
42,
42,
42,
41,
41,
42,
42,
42,
42,
42,
42,
41,
41,
42,
42,
42,
42,
41,
41,
42,
42,
42,
42,
42,
42,
42,
42,
41,
41,
42,
1,
1,
1,
2,
2,
1,
1,
1,
1,
1,
1,
0,
0,
1,
1,
1,
1,
2,
2,
2,
2,
1,
1,
1,
1,
1,
1,
1,
1,
2,
2,
0,
0,
1,
1,
0,
0,
1,
1,
1,
1,
1,
1,
2,
2,
1,
1,
1,
1,
1,
12,
13,
34,
35,
35,
39,
39,
41,
41,
41,
41,
41,
41,
42,
42,
42,
42,
42,
42,
41,
41,
41,
41,
42,
42,
41,
41,
41,
41,
41,
41,
42,
42,
42,
42,
42,
42,
41,
41,
41,
41,
41,
41,
41,
41,
41,
41,
42,
42,
42,
42,
42,
0,
2,
2,
2,
2,
1,
1,
2,
2,
1,
1,
2,
2,
1,
1,
0,
0,
0,
0,
0,
0,
1,
1,
1,
1,
1,
1,
2,
2,
1,
1,
1,
1,
1,
1,
0,
0,
1,
1,
1,
1,
2,
2,
2,
2,
0,
0,
1,
1,
1,
24,
24,
36,
36,
36,
40,
40,
41,
41,
41,
41,
41,
41,
42,
42,
42,
42,
42,
42,
42,
42,
41,
41,
42,
42,
42,
42,
41,
41,
42,
42,
42,
42,
42,
42,
42,
42,
42,
42,
41,
41,
41,
41,
41,
41,
42,
42,
42,
42,
41,
22,
12,
0,
1,
1,
2,
2,
1,
1,
2,
2,
1,
1,
0,
0,
1,
1,
2,
2,
2,
2,
1,
1,
1,
1,
1,
1,
1,
1,
2,
2,
1,
1,
2,
2,
2,
2,
0,
0,
1,
1,
1,
1,
1,
1,
1,
1,
1,
1,
2,
2,
1,
30,
30,
30,
38,
38,
40,
40,
41,
41,
41,
41,
41,
41,
41,
41,
41,
41,
41,
41,
42,
42,
41,
41,
42,
42,
41,
41,
41,
41,
41,
41,
42,
42,
42,
42,
42,
42,
42,
42,
42,
42,
42,
42,
42,
42,
42,
42,
42,
42,
41,
5,
5,
5,
2,
2,
1,
1,
1,
1,
2,
2,
2,
2,
1,
1,
1,
1,
1,
1,
0,
0,
2,
2,
1,
1,
1,
1,
0,
0,
2,
2,
1,
1,
1,
1,
1,
1,
1,
1,
1,
1,
1,
1,
1,
1,
1,
1,
1,
1,
1,
1,
11,
32,
33,
33,
39,
39,
40,
40,
41,
41,
41,
41,
41,
41,
41,
41,
42,
42,
42,
42,
41,
41,
42,
42,
42,
42,
42,
42,
41,
41,
41,
41,
42,
42,
41,
41,
41,
41,
41,
41,
41,
41,
42,
42,
42,
42,
41,
41,
42,
42,
41,
1,
2,
2,
1,
1,
2,
2,
2,
2,
2,
2,
1,
1,
1,
1,
1,
1,
1,
1,
2,
2,
1,
1,
1,
1,
1,
1,
1,
1,
1,
1,
1,
1,
0,
0,
1,
1,
2,
2,
1,
1,
1,
1,
2,
2,
1,
1,
0,
0,
0,
24,
26,
26,
36,
36,
40,
40,
41,
41,
42,
42,
42,
42,
42,
42,
41,
41,
42,
42,
42,
42,
42,
42,
41,
41,
41,
41,
42,
42,
42,
42,
42,
42,
42,
42,
41,
41,
42,
42,
41,
41,
42,
42,
41,
41,
41,
41,
41,
41,
41,
41,
42,
1,
2,
2,
2,
2,
1,
1,
1,
1,
1,
1,
2,
2,
2,
2,
1,
1,
1,
1,
1,
1,
1,
1,
0,
0,
0,
0,
1,
1,
1,
1,
0,
0,
1,
1,
2,
2,
1,
1,
1,
1,
1,
1,
0,
0,
0,
0,
1,
1,
1,
28,
28,
28,
38,
38,
40,
40,
41,
41,
41,
41,
41,
41,
42,
42,
41,
41,
41,
41,
42,
42,
42,
42,
41,
41,
42,
42,
41,
41,
42,
42,
42,
42,
42,
42,
42,
42,
42,
42,
42,
42,
42,
42,
41,
41,
41,
41,
41,
41,
42,
1,
2,
2,
2,
2,
2,
2,
2,
2,
0,
0,
2,
2,
1,
1,
1,
1,
2,
2,
0,
0,
1,
1,
1,
1,
1,
1,
0,
0,
1,
1,
1,
1,
1,
1,
2,
2,
1,
1,
1,
1,
1,
1,
2,
2,
1,
1,
2,
2,
0,
0,
8,
31,
31,
31,
39,
39,
41,
41,
41,
41,
41,
41,
41,
41,
42,
42,
42,
42,
42,
42,
41,
41,
42,
42,
42,
42,
42,
42,
42,
42,
42,
42,
42,
42,
41,
41,
42,
42,
42,
42,
41,
41,
42,
42,
42,
42,
42,
42,
42,
42,
41,
1,
2,
2,
1,
1,
1,
1,
0,
0,
1,
1,
1,
1,
1,
1,
1,
1,
1,
1,
2,
2,
1,
1,
1,
1,
1,
1,
2,
2,
1,
1,
1,
1,
1,
1,
2,
2,
0,
0,
1,
1,
1,
1,
0,
0,
1,
1,
1,
1,
1,
23,
23,
23,
35,
35,
40,
40,
41,
41,
41,
41,
41,
41,
41,
41,
42,
42,
42,
42,
42,
42,
42,
42,
42,
42,
42,
42,
42,
42,
41,
41,
42,
42,
41,
41,
42,
42,
42,
42,
42,
42,
42,
42,
42,
42,
42,
42,
42,
42,
42,
42,
42,
0,
1,
1,
1,
1,
2,
2,
1,
1,
2,
2,
1,
1,
0,
0,
1,
1,
1,
1,
2,
2,
1,
1,
1,
1,
1,
1,
2,
