I2C/3.1 number_10_byte_send_img/A0002CH2.CSV

Memory Length,4000,
Trigger Level,1.43900e+00,
Source,CH2,
Probe,1.0X,
Vertical Units,V,
Vertical Scale,2.00000e+00,
Vertical Position,0.00000e+00,
Horizontal Units,S,
Horizontal Scale,5.00000e-05,
Horizontal Position,0.0000000e+00,
Horizontal Mode,Main,
Sampling Period,2.00000e-07,
Firmware,V1.14,
Time, ,
Mode,Fast,
Waveform Data,
42,
42,
42,
43,
43,
42,
42,
42,
42,
42,
42,
42,
42,
42,
42,
42,
42,
43,
43,
42,
42,
43,
43,
42,
42,
41,
41,
42,
42,
43,
43,
43,
43,
43,
43,
43,
43,
43,
43,
43,
43,
42,
42,
41,
41,
43,
43,
43,
43,
43,
43,
42,
42,
42,
42,
42,
42,
42,
42,
43,
43,
43,
43,
42,
42,
43,
43,
43,
43,
42,
42,
43,
43,
42,
42,
43,
43,
43,
43,
43,
43,
43,
43,
43,
43,
42,
42,
43,
43,
43,
43,
43,
43,
43,
43,
42,
42,
42,
42,
43,
43,
42,
42,
43,
43,
43,
43,
42,
42,
42,
42,
42,
42,
42,
42,
42,
42,
43,
43,
43,
43,
43,
43,
42,
42,
43,
43,
43,
43,
43,
43,
43,
43,
43,
43,
43,
43,
43,
43,
42,
42,
43,
43,
43,
43,
43,
43,
43,
43,
43,
43,
43,
43,
41,
41,
43,
43,
42,
42,
43,
43,
42,
42,
42,
42,
43,
43,
43,
43,
43,
43,
42,
42,
43,
43,
42,
42,
42,
42,
43,
43,
43,
43,
43,
43,
43,
43,
43,
43,
43,
43,
43,
43,
43,
43,
42,
42,
43,
43,
42,
42,
43,
43,
43,
43,
42,
42,
42,
42,
43,
43,
43,
43,
43,
43,
42,
42,
43,
43,
43,
43,
43,
43,
42,
42,
42,
42,
43,
43,
43,
43,
43,
43,
43,
43,
42,
42,
43,
43,
43,
43,
43,
43,
43,
43,
42,
42,
43,
43,
43,
43,
43,
43,
43,
43,
43,
43,
43,
43,
42,
42,
43,
43,
42,
42,
43,
43,
42,
42,
43,
43,
43,
43,
42,
42,
43,
43,
43,
43,
43,
43,
43,
43,
43,
43,
42,
42,
42,
42,
43,
43,
43,
43,
43,
43,
42,
42,
43,
43,
43,
43,
42,
42,
42,
42,
43,
43,
43,
43,
42,
42,
43,
43,
42,
42,
42,
42,
43,
43,
43,
43,
42,
42,
42,
42,
42,
42,
43,
43,
43,
43,
43,
43,
42,
42,
43,
43,
42,
42,
43,
43,
43,
43,
42,
42,
43,
43,
43,
43,
43,
43,
43,
43,
43,
43,
42,
42,
43,
43,
42,
42,
42,
42,
43,
43,
42,
42,
42,
42,
43,
43,
43,
43,
42,
42,
42,
42,
43,
43,
43,
43,
43,
43,
43,
43,
42,
42,
42,
42,
43,
43,
42,
42,
42,
42,
43,
43,
43,
43,
42,
42,
42,
42,
42,
42,
43,
43,
43,
43,
43,
43,
43,
43,
43,
43,
42,
42,
43,
43,
42,
42,
43,
43,
43,
43,
43,
43,
43,
43,
42,
42,
42,
42,
42,
42,
43,
43,
43,
43,
42,
42,
41,
41,
43,
43,
42,
42,
42,
42,
43,
43,
43,
43,
43,
43,
42,
42,
43,
43,
43,
43,
43,
43,
43,
43,
43,
43,
43,
43,
43,
43,
42,
42,
43,
43,
43,
43,
43,
43,
43,
43,
42,
42,
43,
43,
42,
42,
42,
42,
42,
42,
43,
43,
42,
42,
41,
41,
43,
43,
43,
43,
42,
42,
43,
43,
43,
43,
43,
43,
43,
43,
42,
42,
43,
43,
43,
43,
43,
43,
44,
44,
43,
43,
42,
42,
42,
42,
42,
42,
43,
43,
43,
43,
42,
42,
43,
43,
43,
43,
43,
43,
42,
42,
43,
43,
42,
42,
43,
43,
43,
43,
43,
43,
42,
42,
42,
42,
43,
43,
43,
43,
42,
42,
43,
43,
42,
42,
42,
42,
43,
43,
43,
43,
43,
43,
43,
43,
43,
43,
42,
42,
43,
43,
41,
41,
43,
43,
43,
43,
42,
42,
43,
43,
42,
42,
43,
43,
42,
42,
43,
43,
43,
43,
43,
43,
42,
42,
43,
43,
42,
42,
43,
43,
43,
43,
43,
43,
43,
43,
43,
43,
42,
42,
43,
43,
43,
43,
43,
43,
43,
43,
42,
42,
42,
42,
43,
43,
43,
43,
43,
43,
43,
43,
42,
42,
43,
43,
43,
43,
43,
43,
43,
43,
43,
43,
43,
43,
43,
43,
43,
43,
42,
42,
42,
42,
43,
43,
43,
43,
42,
42,
42,
42,
43,
43,
43,
43,
43,
43,
43,
43,
43,
43,
42,
42,
43,
43,
43,
43,
43,
43,
43,
43,
43,
43,
43,
43,
43,
43,
43,
43,
42,
42,
42,
42,
43,
43,
42,
42,
42,
42,
42,
42,
43,
43,
41,
41,
42,
42,
43,
43,
42,
42,
43,
43,
42,
42,
43,
43,
43,
43,
43,
43,
42,
42,
42,
42,
43,
43,
43,
43,
43,
43,
42,
42,
42,
42,
42,
42,
43,
43,
43,
43,
43,
43,
42,
42,
43,
43,
43,
43,
43,
43,
43,
43,
43,
43,
43,
43,
42,
42,
43,
43,
43,
43,
42,
42,
43,
43,
43,
43,
43,
43,
43,
43,
43,
43,
43,
43,
42,
42,
42,
42,
42,
42,
43,
43,
42,
42,
42,
42,
43,
43,
43,
43,
43,
43,
43,
43,
43,
43,
42,
42,
42,
42,
43,
43,
43,
43,
43,
43,
43,
43,
43,
43,
43,
43,
43,
43,
43,
43,
43,
43,
43,
43,
43,
43,
43,
43,
43,
43,
43,
43,
43,
43,
43,
43,
43,
43,
42,
42,
43,
43,
43,
43,
42,
42,
42,
42,
42,
42,
42,
42,
43,
43,
42,
42,
43,
43,
43,
43,
43,
43,
43,
43,
42,
42,
43,
43,
42,
42,
42,
42,
43,
43,
42,
42,
41,
41,
42,
42,
43,
43,
43,
43,
43,
43,
43,
43,
43,
43,
42,
42,
42,
42,
43,
43,
43,
43,
42,
42,
43,
43,
42,
42,
43,
43,
43,
43,
42,
42,
43,
43,
42,
42,
43,
43,
43,
43,
43,
43,
43,
43,
43,
43,
42,
42,
43,
43,
43,
43,
42,
42,
42,
42,
42,
42,
42,
42,
43,
43,
43,
43,
43,
43,
43,
43,
42,
42,
43,
43,
43,
43,
43,
43,
43,
43,
43,
43,
42,
42,
42,
42,
42,
42,
42,
42,
43,
43,
43,
43,
43,
43,
42,
42,
42,
42,
42,
42,
43,
43,
43,
43,
43,
43,
42,
42,
43,
43,
42,
42,
42,
42,
43,
43,
43,
43,
43,
43,
42,
42,
43,
43,
43,
43,
42,
42,
43,
43,
42,
42,
43,
43,
43,
43,
42,
42,
43,
43,
42,
42,
42,
42,
43,
43,
43,
43,
42,
42,
42,
42,
43,
43,
43,
43,
43,
43,
43,
43,
43,
43,
43,
43,
42,
42,
42,
42,
43,
43,
43,
43,
42,
42,
42,
42,
43,
43,
43,
43,
43,
43,
43,
43,
42,
42,
43,
43,
43,
43,
42,
42,
43,
43,
42,
42,
43,
43,
43,
43,
42,
42,
43,
43,
41,
41,
43,
43,
43,
43,
43,
43,
43,
43,
42,
42,
42,
42,
43,
43,
43,
43,
43,
43,
42,
42,
42,
42,
43,
43,
42,
42,
42,
42,
42,
42,
43,
43,
42,
42,
43,
43,
43,
43,
43,
43,
42,
42,
43,
43,
42,
42,
43,
43,
43,
43,
42,
42,
43,
43,
42,
42,
43,
43,
42,
42,
43,
43,
43,
43,
43,
43,
43,
43,
43,
43,
42,
42,
43,
43,
43,
43,
43,
43,
43,
43,
43,
43,
42,
42,
41,
41,
42,
42,
43,
43,
43,
43,
42,
42,
43,
43,
42,
42,
42,
42,
43,
43,
42,
42,
43,
43,
43,
43,
43,
43,
43,
43,
42,
42,
42,
42,
42,
42,
42,
42,
43,
43,
43,
43,
43,
43,
43,
43,
43,
43,
42,
42,
43,
43,
43,
43,
42,
42,
43,
43,
43,
43,
41,
41,
42,
42,
43,
43,
42,
42,
43,
43,
42,
42,
43,
43,
42,
42,
43,
43,
42,
42,
42,
42,
42,
42,
43,
43,
43,
43,
42,
42,
43,
43,
42,
42,
43,
43,
43,
43,
43,
43,
43,
43,
43,
43,
42,
42,
43,
43,
42,
42,
42,
42,
43,
43,
43,
43,
43,
43,
42,
42,
43,
43,
42,
42,
43,
43,
42,
42,
43,
43,
43,
43,
42,
42,
43,
43,
43,
43,
43,
43,
43,
43,
43,
43,
43,
43,
42,
42,
43,
43,
43,
43,
43,
43,
43,
43,
43,
43,
43,
43,
43,
43,
43,
43,
42,
42,
43,
43,
42,
42,
43,
43,
43,
43,
43,
43,
43,
43,
43,
43,
43,
43,
43,
43,
43,
43,
42,
42,
43,
43,
42,
42,
43,
43,
43,
43,
43,
43,
42,
42,
43,
43,
42,
42,
42,
42,
42,
42,
43,
43,
43,
43,
43,
43,
42,
42,
42,
42,
43,
43,
43,
43,
42,
42,
43,
43,
43,
43,
43,
43,
42,
42,
43,
43,
43,
43,
43,
43,
43,
43,
42,
42,
43,
43,
42,
42,
42,
42,
43,
43,
42,
42,
43,
43,
42,
42,
42,
42,
42,
42,
43,
43,
42,
42,
43,
43,
43,
43,
42,
42,
43,
43,
42,
42,
43,
43,
42,
42,
43,
43,
43,
43,
43,
43,
42,
42,
43,
43,
42,
42,
43,
43,
42,
42,
43,
43,
43,
43,
43,
43,
43,
43,
42,
42,
43,
43,
42,
42,
42,
42,
43,
43,
43,
43,
43,
43,
42,
42,
43,
43,
43,
43,
42,
42,
43,
43,
42,
42,
43,
43,
42,
42,
43,
43,
43,
43,
42,
42,
42,
42,
43,
43,
43,
43,
42,
42,
43,
43,
42,
42,
42,
42,
42,
42,
43,
43,
43,
43,
43,
43,
43,
43,
42,
42,
43,
43,
42,
42,
42,
42,
43,
43,
43,
43,
42,
42,
43,
43,
42,
42,
43,
43,
43,
43,
43,
43,
43,
43,
42,
42,
43,
43,
43,
43,
43,
43,
43,
43,
42,
42,
43,
43,
42,
42,
43,
43,
43,
43,
41,
41,
42,
42,
43,
43,
43,
43,
43,
43,
42,
42,
42,
42,
42,
42,
42,
42,
43,
43,
43,
43,
43,
43,
43,
43,
43,
43,
42,
42,
42,
42,
43,
43,
43,
43,
43,
43,
43,
43,
43,
43,
43,
43,
42,
42,
43,
43,
43,
43,
43,
43,
43,
43,
43,
43,
43,
43,
42,
42,
42,
42,
43,
43,
43,
43,
42,
42,
42,
42,
43,
43,
43,
43,
43,
43,
42,
42,
42,
42,
43,
43,
43,
43,
43,
43,
43,
43,
43,
43,
43,
43,
42,
42,
43,
43,
43,
43,
42,
42,
43,
43,
43,
43,
43,
43,
43,
43,
43,
43,
43,
43,
43,
43,
42,
42,
42,
42,
42,
42,
42,
42,
43,
43,
43,
43,
43,
43,
42,
42,
43,
43,
43,
43,
43,
43,
42,
42,
42,
42,
42,
42,
43,
43,
42,
42,
43,
43,
42,
42,
42,
42,
42,
42,
43,
43,
43,
43,
42,
42,
42,
42,
43,
43,
42,
42,
42,
42,
43,
43,
42,
42,
42,
42,
43,
43,
43,
43,
42,
42,
42,
42,
43,
43,
43,
43,
42,
42,
43,
43,
43,
43,
43,
43,
42,
42,
43,
43,
43,
43,
42,
42,
42,
42,
42,
42,
42,
42,
43,
43,
43,
43,
42,
42,
43,
43,
42,
42,
43,
43,
43,
43,
43,
43,
42,
42,
42,
42,
42,
42,
42,
42,
42,
42,
42,
42,
43,
43,
43,
43,
43,
43,
42,
42,
43,
43,
43,
43,
43,
43,
43,
43,
43,
43,
42,
42,
43,
43,
43,
43,
42,
42,
43,
43,
43,
43,
43,
43,
43,
43,
42,
42,
43,
43,
43,
43,
43,
43,
43,
43,
43,
43,
43,
43,
42,
42,
42,
42,
42,
42,
42,
42,
43,
43,
43,
43,
43,
43,
43,
43,
43,
43,
43,
43,
42,
42,
43,
43,
42,
42,
42,
42,
43,
43,
43,
43,
43,
43,
42,
42,
43,
43,
43,
43,
42,
42,
43,
43,
43,
43,
42,
42,
43,
43,
43,
43,
42,
42,
43,
43,
43,
43,
43,
43,
43,
43,
42,
42,
28,
1,
2,
2,
2,
2,
2,
2,
3,
3,
2,
2,
2,
2,
1,
1,
2,
2,
2,
2,
2,
2,
2,
2,
2,
22,
24,
41,
42,
42,
42,
42,
43,
43,
43,
43,
42,
42,
43,
43,
43,
43,
43,
43,
43,
43,
43,
43,
43,
43,
43,
2,
3,
3,
2,
2,
1,
1,
3,
3,
1,
1,
2,
2,
2,
2,
1,
1,
2,
2,
2,
2,
1,
1,
2,
2,
7,
39,
39,
39,
42,
42,
42,
42,
43,
43,
42,
42,
43,
43,
43,
43,
43,
43,
42,
42,
42,
42,
43,
43,
43,
1,
3,
3,
2,
2,
2,
2,
2,
2,
2,
2,
2,
2,
2,
2,
2,
2,
2,
2,
2,
2,
2,
2,
2,
2,
2,
35,
35,
35,
41,
41,
42,
42,
42,
42,
42,
42,
42,
42,
41,
41,
42,
42,
43,
43,
42,
42,
43,
43,
43,
43,
39,
1,
3,
3,
2,
2,
2,
2,
1,
1,
2,
2,
1,
1,
2,
2,
1,
1,
2,
2,
2,
2,
2,
2,
2,
32,
31,
31,
41,
41,
42,
42,
43,
43,
43,
43,
43,
43,
43,
43,
42,
42,
43,
43,
42,
42,
43,
43,
43,
43,
43,
1,
2,
2,
2,
2,
2,
2,
2,
2,
2,
2,
1,
1,
2,
2,
3,
3,
1,
1,
2,
2,
1,
1,
2,
2,
11,
39,
38,
38,
42,
42,
42,
42,
41,
41,
43,
43,
42,
42,
42,
42,
42,
42,
43,
43,
42,
42,
42,
42,
43,
2,
2,
2,
2,
2,
1,
1,
2,
2,
2,
2,
2,
2,
2,
2,
2,
2,
1,
1,
2,
2,
2,
2,
2,
2,
2,
31,
31,
42,
42,
42,
42,
42,
42,
42,
42,
42,
42,
42,
42,
42,
43,
43,
43,
43,
42,
42,
42,
42,
42,
42,
42,
1,
2,
2,
2,
2,
1,
1,
1,
1,
2,
2,
2,
2,
3,
3,
2,
2,
2,
2,
2,
2,
2,
2,
2,
28,
29,
41,
41,
41,
42,
42,
42,
42,
43,
43,
43,
43,
42,
42,
41,
41,
43,
43,
42,
42,
43,
43,
43,
43,
43,
2,
3,
3,
2,
2,
2,
2,
2,
2,
1,
1,
2,
2,
2,
2,
2,
2,
2,
2,
3,
3,
2,
2,
2,
2,
1,
38,
38,
38,
41,
41,
43,
43,
43,
43,
43,
43,
42,
42,
43,
43,
42,
42,
43,
43,
43,
43,
42,
42,
43,
2,
3,
3,
2,
2,
2,
2,
2,
2,
2,
2,
2,
2,
2,
2,
2,
2,
2,
2,
1,
1,
2,
2,
2,
2,
2,
34,
33,
33,
41,
41,
42,
42,
43,
43,
43,
43,
42,
42,
43,
43,
43,
43,
43,
43,
42,
42,
42,
42,
43,
43,
42,
1,
3,
3,
2,
2,
2,
2,
2,
2,
1,
1,
3,
3,
2,
2,
3,
3,
2,
2,
2,
2,
2,
2,
1,
28,
28,
40,
40,
40,
42,
42,
42,
42,
42,
42,
42,
42,
43,
43,
42,
42,
42,
42,
42,
42,
42,
42,
43,
43,
42,
2,
2,
2,
3,
3,
2,
2,
2,
2,
2,
2,
2,
2,
3,
3,
1,
1,
1,
1,
2,
2,
2,
2,
2,
2,
2,
36,
36,
36,
42,
42,
43,
43,
42,
42,
42,
42,
42,
42,
42,
42,
43,
43,
43,
43,
43,
43,
42,
42,
43,
1,
3,
3,
2,
2,
2,
2,
2,
2,
2,
2,
2,
2,
1,
1,
2,
2,
2,
2,
1,
1,
2,
2,
3,
3,
1,
35,
36,
36,
42,
42,
42,
42,
43,
43,
43,
43,
43,
43,
42,
42,
43,
43,
42,
42,
42,
42,
43,
43,
43,
43,
43,
1,
2,
2,
2,
2,
2,
2,
1,
1,
2,
2,
1,
1,
2,
2,
3,
3,
2,
2,
2,
2,
2,
2,
2,
2,
14,
41,
40,
40,
42,
42,
43,
43,
42,
42,
42,
42,
43,
43,
43,
43,
43,
43,
43,
43,
43,
43,
41,
41,
43,
1,
3,
3,
2,
2,
2,
2,
2,
2,
2,
2,
2,
2,
1,
1,
2,
2,
2,
2,
2,
2,
1,
1,
2,
2,
2,
36,
36,
36,
42,
42,
43,
43,
42,
42,
43,
43,
43,
43,
42,
42,
42,
42,
43,
43,
43,
43,
43,
43,
43,
43,
17,
1,
2,
2,
2,
2,
3,
3,
2,
2,
2,
2,
2,
2,
3,
3,
2,
2,
2,
2,
2,
2,
2,
2,
1,
31,
31,
31,
41,
41,
42,
42,
43,
43,
42,
42,
41,
41,
42,
42,
43,
43,
43,
43,
43,
43,
43,
43,
42,
42,
42,
1,
2,
2,
1,
1,
2,
2,
2,
2,
2,
2,
2,
2,
2,
2,
2,
2,
2,
2,
2,
2,
2,
2,
2,
22,
23,
40,
40,
40,
42,
42,
42,
42,
43,
43,
42,
42,
42,
42,
43,
43,
43,
43,
42,
42,
42,
42,
43,
43,
42,
2,
2,
2,
2,
2,
1,
1,
2,
2,
1,
1,
2,
2,
2,
2,
1,
1,
1,
1,
1,
1,
2,
2,
2,
2,
2,
39,
39,
39,
42,
42,
43,
43,
42,
42,
43,
43,
43,
43,
42,
42,
42,
42,
42,
42,
43,
43,
42,
42,
42,
42,
43,
1,
3,
3,
2,
2,
2,
2,
2,
2,
2,
2,
2,
2,
2,
2,
2,
2,
3,
3,
2,
2,
2,
2,
2,
2,
2,
2,
2,
2,
2,
2,
2,
2,
2,
2,
2,
2,
1,
1,
2,
2,
2,
2,
2,
2,
2,
2,
2,
2,
2,
2,
1,
1,
2,
2,
1,
1,
2,
2,
3,
3,
2,
2,
1,
1,
2,
2,
2,
2,
3,
3,
2,
2,
3,
3,
2,
2,
1,
1,
2,
2,
2,
2,
2,
2,
2,
2,
2,
2,
2,
2,
2,
2,
2,
32,
32,
32,
41,
41,
42,
42,
42,
42,
43,
43,
42,
42,
43,
43,
42,
42,
42,
42,
43,
43,
43,
43,
43,
43,
43,
1,
2,
2,
2,
2,
2,
2,
2,
2,
2,
2,
2,
2,
2,
2,
3,
3,
2,
2,
2,
2,
2,
2,
2,
2,
13,
39,
39,
39,
42,
42,
42,
42,
42,
42,
43,
43,
42,
42,
43,
43,
43,
43,
43,
43,
42,
42,
43,
43,
42,
42,
43,
43,
43,
43,
43,
43,
43,
43,
43,
43,
42,
42,
43,
43,
43,
43,
42,
42,
42,
42,
43,
43,
43,
43,
43,
43,
43,
43,
42,
42,
42,
42,
43,
43,
43,
43,
42,
42,
42,
42,
43,
43,
43,
43,
42,
42,
43,
43,
43,
43,
42,
42,
42,
42,
42,
42,
43,
43,
43,
43,
43,
43,
42,
42,
42,
42,
42,
42,
43,
43,
43,
43,
43,
43,
43,
43,
42,
42,
42,
42,
42,
42,
42,
42,
42,
42,
43,
43,
43,
43,
43,
43,
43,
43,
42,
42,
43,
43,
42,
42,
42,
42,
42,
42,
43,
43,
42,
42,
42,
42,
43,
43,
43,
43,
41,
41,
42,
42,
42,
42,
43,
43,
43,
43,
43,
43,
42,
42,
43,
43,
43,
43,
43,
43,
42,
42,
42,
42,
43,
43,
43,
43,
42,
42,
43,
43,
43,
43,
42,
42,
42,
42,
43,
43,
43,
43,
43,
43,
43,
43,
42,
42,
42,
42,
43,
43,
42,
42,
42,
42,
42,
42,
42,
42,
43,
43,
42,
42,
43,
43,
43,
43,
43,
43,
42,
42,
43,
43,
43,
43,
43,
43,
43,
43,
42,
42,
42,
42,
42,
42,
42,
42,
43,
43,
43,
43,
42,
42,
43,
43,
43,
43,
43,
43,
43,
43,
42,
42,
42,
42,
43,
43,
43,
43,
42,
42,
43,
43,
42,
42,
42,
42,
43,
43,
42,
42,
42,
42,
42,
42,
42,
42,
43,
43,
43,
43,
43,
43,
43,
43,
42,
42,
43,
43,
43,
43,
43,
43,
43,
43,
41,
41,
43,
43,
42,
42,
43,
43,
42,
42,
43,
43,
42,
42,
43,
43,
43,
43,
43,
43,
42,
42,
42,
42,
43,
43,
43,
43,
42,
42,
42,
42,
42,
42,
43,
43,
42,
42,
42,
42,
42,
42,
43,
43,
43,
43,
43,
43,
43,
43,
43,
43,
42,
42,
43,
43,
42,
42,
43,
43,
43,
43,
42,
42,
43,
43,
42,
42,
42,
42,
43,
43,
43,
43,
42,
42,
43,
43,
43,
43,
43,
43,
43,
43,
42,
42,
42,
42,
43,
43,
43,
43,
43,
43,
43,
43,
43,
43,
43,
43,
42,
42,
42,
42,
43,
43,
42,
42,
43,
43,
42,
42,
42,
42,
42,
42,
43,
43,
43,
43,
43,
43,
43,
43,
43,
43,
42,
42,
43,
43,
42,
42,
42,
42,
42,
42,
42,
42,
43,
43,
42,
42,
42,
42,
42,
42,
42,
42,
43,
43,
42,
42,
43,
43,
43,
43,
43,
43,
43,
43,
42,
42,
43,
43,
43,
43,
43,
43,
43,
43,
43,
43,
41,
41,
43,
43,
42,
42,
43,
43,
43,
43,
42,
42,
43,
43,
43,
43,
43,
43,
43,
43,
43,
43,
43,
43,
43,
43,
42,
42,
43,
43,
43,
43,
43,
43,
43,
43,
43,
43,
43,
43,
43,
43,
43,
43,
42,
42,
43,
43,
43,
43,
42,
42,
43,
43,
42,
42,
43,
43,
43,
43,
43,
43,
42,
42,
42,
42,
43,
43,
42,
42,
43,
43,
43,
43,
43,
43,
42,
42,
43,
43,
43,
43,
43,
43,
43,
43,
42,
42,
43,
43,
42,
42,
43,
43,
43,
43,
43,
43,
42,
42,
42,
42,
43,
43,
43,
43,
43,
43,
43,
43,
43,
43,
43,
43,
43,
43,
43,
43,
42,
42,
43,
43,
43,
43,
42,
42,
43,
43,
42,
42,
42,
42,
43,
43,
42,
42,
42,
42,
43,
43,
43,
43,
42,
42,
42,
42,
43,
43,
43,
43,
43,
43,
42,
42,
42,
42,
43,
43,
42,
42,
42,
42,
43,
43,
43,
43,
42,
42,
43,
43,
42,
42,
43,
43,
43,
43,
43,
43,
43,
43,
43,
43,
43,
43,
42,
42,
43,
43,
42,
42,
43,
43,
43,
43,
42,
42,
43,
43,
43,
43,
42,
42,
43,
43,
43,
43,
43,
43,
43,
43,
43,
43,
43,
43,
42,
42,
43,
43,
41,
41,
42,
42,
43,
43,
42,
42,
43,
43,
43,
43,
42,
42,
43,
43,
43,
43,
43,
43,
43,
43,
42,
42,
42,
42,
42,
42,
42,
42,
42,
42,
43,
43,
43,
43,
43,
43,
42,
42,
42,
42,
43,
43,
43,
43,
42,
42,
43,
43,
43,
43,
42,
42,
43,
43,
43,
43,
42,
42,
43,
43,
42,
42,
43,
43,
42,
42,
43,
43,
43,
43,
43,
43,
43,
43,
42,
42,
42,
42,
43,
43,
43,
43,
42,
42,
43,
43,
43,
43,
43,
43,
43,
43,
43,
43,
43,
43,
42,
42,
43,
43,
43,
43,
43,
43,
42,
42,
42,
42,
42,
42,
43,
43,
42,
42,
42,
42,
43,
43,
42,
42,
42,
42,
43,
43,
43,
43,
42,
42,
43,
43,
43,
43,
43,
43,
43,
43,
43,
43,
43,
43,
42,
42,
43,
43,
43,
43,
42,
42,
43,
43,
43,
43,
43,
43,
43,
43,
43,
43,
43,
43,
42,
42,
42,
42,
43,
43,
43,
43,
42,
42,
43,
43,
43,
43,
42,
42,
43,
43,
43,
43,
43,
43,
43,
43,
43,
43,
42,
42,
43,
43,
42,
42,
43,
43,
43,
43,
43,
43,
43,
43,
43,
43,
43,
43,
42,
42,
43,
43,
43,
43,
43,
43,
43,
43,
43,
43,
42,
42,
43,
43,
42,
42,
43,
43,
42,
42,
42,
42,
43,
43,
42,
42,
43,
43,
42,
42,
43,
43,
43,
43,
43,
43,
42,
42,
42,
42,
42,
42,
42,
42,
43,
43,
43,
43,
43,
43,
42,
42,
43,
43,
43,
43,
42,
42,
42,
42,
43,
43,
43,
43,
42,
42,
42,
42,
43,
43,
42,
42,
43,
43,
43,
43,
43,
43,
43,
43,
43,
43,
43,
43,
43,
43,
43,
43,
42,
42,
43,
43,
43,
43,
43,
43,
43,
43,
43,
43,
42,
42,
43,
43,
42,
42,
42,
42,
43,
43,
43,
43,
43,
43,
43,
43,
43,
43,
42,
42,
43,
43,
43,
43,
42,
42,
42,
42,
43,
43,
42,
42,
43,
43,
43,
43,
43,
43,
42,
42,
43,
43,
43,
43,
42,
42,
43,
43,
42,
42,
42,
42,
43,
43,
42,
42,
43,
43,
43,
43,
42,
42,
43,
43,
42,
42,
42,
42,
42,
42,
43,
43,
42,
42,
41,
