I2C/3.4 100k_resistor_img/A0000CH2.CSV

Memory Length,4000,
Trigger Level,1.51900e+00,
Source,CH2,
Probe,1.0X,
Vertical Units,V,
Vertical Scale,2.00000e+00,
Vertical Position,-1.92000e+00,
Horizontal Units,S,
Horizontal Scale,2.50000e-05,
Horizontal Position,9.3000000e-05,
Horizontal Mode,Main,
Sampling Period,1.00000e-07,
Firmware,V1.14,
Time, ,
Mode,Fast,
Waveform Data,
41,
41,
41,
42,
42,
42,
42,
42,
42,
41,
41,
41,
41,
41,
41,
42,
42,
42,
42,
41,
41,
41,
41,
41,
41,
42,
42,
41,
41,
41,
41,
41,
41,
40,
40,
41,
41,
41,
41,
41,
41,
41,
41,
40,
40,
41,
41,
41,
41,
41,
41,
42,
42,
40,
40,
41,
41,
42,
42,
40,
40,
40,
40,
40,
40,
40,
40,
40,
40,
40,
40,
40,
40,
41,
41,
40,
40,
41,
41,
41,
41,
40,
40,
40,
40,
41,
41,
41,
41,
40,
40,
41,
41,
40,
40,
41,
41,
41,
41,
41,
41,
40,
40,
41,
41,
41,
41,
41,
41,
41,
41,
41,
41,
41,
41,
42,
42,
41,
41,
42,
42,
41,
41,
41,
41,
41,
41,
41,
41,
40,
40,
41,
41,
41,
41,
42,
42,
41,
41,
41,
41,
42,
42,
41,
41,
41,
41,
41,
41,
42,
42,
42,
42,
41,
41,
41,
41,
41,
41,
42,
42,
42,
42,
41,
41,
41,
41,
41,
41,
42,
42,
42,
42,
42,
42,
41,
41,
41,
41,
42,
42,
41,
41,
41,
41,
41,
41,
41,
41,
41,
41,
42,
42,
41,
41,
41,
41,
42,
42,
41,
41,
40,
40,
41,
41,
41,
41,
42,
42,
41,
41,
42,
42,
42,
42,
41,
41,
42,
42,
41,
41,
41,
41,
41,
41,
41,
41,
42,
42,
40,
40,
41,
41,
41,
41,
41,
41,
41,
41,
41,
41,
41,
41,
41,
41,
40,
40,
41,
41,
41,
41,
41,
41,
41,
41,
41,
41,
40,
40,
41,
41,
41,
41,
40,
40,
41,
41,
41,
41,
40,
40,
40,
40,
41,
41,
42,
42,
41,
41,
41,
41,
41,
41,
40,
40,
41,
41,
42,
42,
41,
41,
40,
40,
41,
41,
41,
41,
41,
41,
41,
41,
41,
41,
41,
41,
41,
41,
41,
41,
41,
41,
42,
42,
40,
40,
42,
42,
41,
41,
40,
40,
40,
40,
40,
40,
41,
41,
40,
40,
41,
41,
41,
41,
41,
41,
40,
40,
41,
41,
41,
41,
42,
42,
40,
40,
40,
40,
40,
40,
41,
41,
41,
41,
40,
40,
41,
41,
41,
41,
41,
41,
41,
41,
41,
41,
42,
42,
41,
41,
41,
41,
40,
40,
41,
41,
42,
42,
41,
41,
41,
41,
41,
41,
41,
41,
41,
41,
41,
41,
41,
41,
41,
41,
42,
42,
41,
41,
40,
40,
42,
42,
42,
42,
41,
41,
42,
42,
41,
41,
42,
42,
41,
41,
41,
41,
41,
41,
41,
41,
42,
42,
41,
41,
41,
41,
41,
41,
41,
41,
41,
41,
41,
41,
42,
42,
41,
41,
41,
41,
41,
41,
41,
41,
41,
41,
41,
41,
42,
42,
42,
42,
42,
42,
41,
41,
41,
41,
41,
41,
41,
41,
42,
42,
40,
40,
41,
41,
41,
41,
41,
41,
41,
41,
41,
41,
40,
40,
40,
40,
42,
42,
42,
42,
41,
41,
40,
40,
41,
41,
40,
40,
40,
40,
40,
40,
40,
40,
40,
40,
41,
41,
40,
40,
40,
40,
41,
41,
40,
40,
41,
41,
41,
41,
40,
40,
40,
40,
41,
41,
42,
42,
40,
40,
41,
41,
41,
41,
41,
41,
41,
41,
41,
41,
40,
40,
41,
41,
41,
41,
41,
41,
41,
41,
40,
40,
40,
40,
41,
41,
41,
41,
41,
41,
41,
41,
42,
42,
41,
41,
41,
41,
41,
41,
40,
40,
41,
41,
41,
41,
41,
41,
41,
41,
41,
41,
40,
40,
41,
41,
41,
41,
41,
41,
41,
41,
41,
41,
41,
41,
40,
40,
41,
41,
41,
41,
42,
42,
42,
42,
41,
41,
41,
41,
41,
41,
41,
41,
41,
41,
42,
42,
41,
41,
41,
41,
40,
40,
41,
41,
41,
41,
41,
41,
41,
41,
41,
41,
41,
41,
41,
41,
41,
41,
41,
41,
40,
40,
41,
41,
41,
41,
40,
40,
40,
40,
41,
41,
41,
41,
40,
40,
41,
41,
41,
41,
41,
41,
41,
41,
40,
40,
41,
41,
41,
41,
41,
41,
41,
41,
41,
41,
42,
42,
41,
41,
42,
42,
42,
42,
41,
41,
41,
41,
42,
42,
41,
41,
41,
41,
40,
40,
41,
41,
41,
41,
41,
41,
42,
42,
41,
41,
42,
42,
42,
42,
41,
41,
41,
41,
41,
41,
41,
41,
41,
41,
41,
41,
41,
41,
40,
40,
40,
40,
41,
41,
41,
41,
41,
41,
41,
41,
40,
40,
41,
41,
40,
40,
42,
42,
41,
41,
41,
41,
41,
41,
41,
41,
40,
40,
41,
41,
41,
41,
40,
40,
41,
41,
41,
41,
42,
42,
42,
42,
41,
41,
41,
41,
40,
40,
41,
41,
41,
41,
40,
40,
41,
41,
41,
41,
40,
40,
41,
41,
41,
41,
41,
41,
41,
41,
41,
41,
41,
41,
40,
40,
41,
41,
41,
41,
41,
41,
41,
41,
41,
41,
41,
41,
41,
41,
41,
41,
41,
41,
41,
41,
42,
42,
41,
41,
41,
41,
41,
41,
41,
41,
41,
41,
41,
41,
42,
42,
41,
41,
41,
41,
41,
41,
40,
40,
40,
40,
40,
40,
40,
40,
41,
41,
40,
40,
40,
40,
41,
41,
41,
41,
40,
40,
41,
41,
41,
41,
40,
40,
40,
40,
41,
41,
40,
40,
40,
40,
40,
40,
41,
41,
41,
41,
40,
40,
40,
40,
40,
40,
41,
41,
41,
41,
41,
41,
41,
41,
41,
41,
41,
41,
41,
41,
41,
41,
41,
41,
41,
41,
41,
41,
41,
41,
40,
40,
41,
41,
42,
42,
41,
41,
41,
41,
40,
0,
1,
1,
0,
0,
0,
0,
0,
0,
0,
0,
0,
0,
0,
0,
0,
0,
0,
0,
0,
0,
0,
0,
0,
0,
0,
0,
0,
0,
0,
0,
1,
1,
0,
0,
0,
0,
0,
0,
0,
0,
0,
0,
0,
0,
0,
0,
0,
0,
0,
0,
0,
0,
6,
6,
9,
9,
12,
12,
16,
16,
19,
19,
22,
22,
24,
24,
27,
27,
29,
29,
32,
32,
32,
32,
35,
35,
35,
35,
38,
38,
38,
38,
38,
38,
39,
39,
39,
39,
40,
40,
40,
40,
40,
40,
40,
40,
40,
40,
40,
40,
40,
40,
40,
40,
41,
41,
41,
41,
41,
41,
41,
41,
41,
28,
13,
0,
0,
0,
0,
0,
0,
0,
0,
0,
0,
0,
1,
1,
0,
0,
0,
0,
0,
0,
0,
0,
0,
0,
0,
0,
0,
0,
0,
0,
0,
0,
0,
0,
0,
0,
0,
0,
0,
0,
0,
0,
0,
0,
0,
0,
0,
0,
0,
0,
2,
2,
5,
5,
9,
9,
11,
11,
16,
16,
19,
19,
22,
22,
25,
25,
27,
27,
29,
29,
31,
31,
32,
32,
35,
35,
35,
35,
36,
36,
38,
38,
38,
38,
39,
39,
40,
40,
40,
40,
40,
40,
40,
40,
40,
40,
40,
40,
40,
40,
41,
41,
41,
41,
41,
41,
41,
41,
41,
41,
41,
41,
41,
41,
15,
0,
0,
0,
0,
0,
0,
0,
0,
0,
0,
0,
0,
0,
0,
0,
0,
0,
0,
0,
0,
0,
1,
1,
0,
0,
0,
0,
0,
0,
0,
0,
0,
0,
0,
0,
0,
0,
0,
0,
0,
0,
0,
0,
-1,
-1,
0,
0,
0,
0,
0,
0,
5,
5,
8,
8,
12,
12,
16,
16,
19,
19,
21,
21,
24,
24,
27,
27,
29,
29,
31,
31,
33,
33,
34,
34,
35,
35,
36,
36,
38,
38,
38,
38,
39,
39,
39,
39,
39,
39,
39,
39,
40,
40,
40,
40,
40,
40,
40,
40,
40,
40,
41,
41,
41,
41,
41,
41,
40,
40,
41,
41,
42,
42,
41,
0,
1,
1,
0,
0,
0,
0,
0,
0,
0,
0,
0,
0,
0,
0,
0,
0,
0,
0,
0,
0,
0,
0,
0,
0,
-1,
-1,
0,
0,
0,
0,
0,
0,
0,
0,
0,
0,
0,
0,
0,
0,
0,
0,
0,
0,
0,
0,
0,
0,
0,
0,
4,
4,
8,
8,
11,
11,
16,
16,
18,
18,
22,
22,
24,
24,
27,
27,
28,
28,
31,
31,
32,
32,
34,
34,
35,
35,
37,
37,
37,
37,
38,
38,
39,
39,
39,
39,
39,
39,
40,
40,
40,
40,
40,
40,
40,
40,
40,
40,
40,
40,
40,
40,
40,
40,
41,
41,
40,
40,
41,
41,
40,
40,
41,
0,
0,
0,
0,
0,
1,
1,
0,
0,
0,
0,
0,
0,
0,
0,
0,
0,
0,
0,
0,
0,
0,
0,
0,
0,
0,
0,
0,
0,
0,
0,
0,
0,
0,
0,
0,
0,
0,
0,
0,
0,
0,
0,
0,
0,
0,
0,
0,
0,
0,
0,
3,
3,
8,
8,
11,
11,
14,
14,
17,
17,
21,
21,
24,
24,
26,
26,
29,
29,
31,
31,
33,
33,
34,
34,
35,
35,
36,
36,
37,
37,
38,
38,
38,
38,
39,
39,
39,
39,
40,
40,
40,
40,
40,
40,
40,
40,
40,
40,
40,
40,
41,
41,
40,
40,
41,
41,
41,
41,
40,
40,
40,
40,
41,
0,
0,
0,
0,
0,
0,
0,
0,
0,
0,
0,
0,
0,
0,
0,
0,
0,
0,
0,
0,
0,
0,
0,
0,
0,
0,
0,
0,
0,
0,
0,
0,
0,
0,
0,
0,
0,
0,
0,
0,
0,
0,
0,
0,
0,
0,
0,
1,
1,
0,
0,
4,
4,
8,
8,
11,
11,
15,
15,
19,
19,
21,
21,
24,
24,
26,
26,
28,
28,
31,
31,
32,
32,
34,
34,
35,
35,
36,
36,
38,
38,
38,
38,
38,
38,
39,
39,
40,
40,
40,
40,
40,
40,
40,
40,
41,
41,
41,
41,
40,
40,
41,
41,
41,
41,
41,
41,
41,
41,
41,
41,
41,
41,
42,
0,
0,
0,
0,
0,
1,
1,
0,
0,
0,
0,
0,
0,
0,
0,
0,
0,
0,
0,
0,
0,
0,
0,
0,
0,
0,
0,
0,
0,
0,
0,
0,
0,
0,
0,
0,
0,
0,
0,
0,
0,
0,
0,
0,
0,
0,
0,
0,
0,
0,
0,
3,
3,
7,
7,
11,
11,
15,
15,
18,
18,
21,
21,
23,
23,
26,
26,
28,
28,
30,
30,
32,
32,
34,
34,
35,
35,
36,
36,
37,
37,
38,
38,
39,
39,
39,
39,
40,
40,
39,
39,
40,
40,
40,
40,
41,
41,
41,
41,
41,
41,
41,
41,
41,
41,
41,
41,
42,
42,
42,
42,
41,
41,
41,
0,
1,
1,
0,
0,
0,
0,
0,
0,
0,
0,
0,
0,
0,
0,
0,
0,
0,
0,
0,
0,
0,
0,
0,
0,
0,
0,
0,
0,
0,
0,
0,
0,
0,
0,
1,
1,
0,
0,
0,
0,
0,
0,
0,
0,
0,
0,
0,
0,
0,
0,
3,
3,
7,
7,
11,
11,
15,
15,
19,
19,
19,
19,
23,
23,
25,
25,
27,
27,
30,
30,
32,
32,
33,
33,
35,
35,
35,
35,
36,
36,
38,
38,
38,
38,
39,
39,
39,
39,
40,
40,
40,
40,
40,
40,
40,
40,
40,
40,
40,
40,
41,
41,
40,
40,
40,
40,
41,
41,
41,
41,
41,
41,
41,
-1,
0,
0,
0,
0,
0,
0,
0,
0,
0,
0,
0,
0,
0,
0,
0,
0,
0,
0,
0,
0,
0,
0,
0,
0,
0,
0,
0,
0,
0,
0,
0,
0,
0,
0,
-1,
-1,
1,
1,
0,
0,
0,
0,
1,
1,
0,
0,
0,
0,
0,
0,
2,
2,
6,
6,
10,
10,
13,
13,
16,
16,
20,
20,
23,
23,
26,
26,
27,
27,
31,
31,
31,
31,
33,
33,
35,
35,
36,
36,
37,
37,
38,
38,
38,
38,
39,
39,
39,
39,
40,
40,
40,
40,
40,
40,
40,
40,
41,
41,
40,
40,
41,
41,
41,
41,
42,
42,
41,
41,
41,
41,
41,
41,
41,
2,
0,
0,
1,
1,
0,
0,
0,
0,
0,
0,
0,
0,
0,
0,
0,
0,
0,
0,
1,
1,
0,
0,
0,
0,
0,
0,
0,
0,
0,
0,
0,
0,
0,
0,
0,
0,
0,
0,
0,
0,
0,
0,
0,
0,
0,
0,
0,
0,
0,
0,
2,
2,
6,
6,
10,
10,
13,
13,
16,
16,
19,
19,
23,
23,
25,
25,
28,
28,
30,
30,
31,
31,
33,
33,
35,
35,
35,
35,
37,
37,
38,
38,
38,
38,
39,
39,
40,
40,
40,
40,
40,
40,
40,
40,
40,
40,
41,
41,
41,
41,
40,
40,
40,
40,
41,
41,
41,
41,
41,
41,
40,
40,
41,
17,
7,
7,
0,
0,
1,
1,
0,
0,
0,
0,
0,
0,
0,
0,
0,
0,
1,
1,
1,
1,
0,
0,
0,
0,
0,
0,
0,
0,
0,
0,
0,
0,
0,
0,
0,
0,
0,
0,
0,
0,
0,
0,
0,
0,
0,
0,
0,
0,
0,
0,
2,
2,
6,
6,
9,
9,
12,
12,
17,
17,
19,
19,
22,
22,
24,
24,
27,
27,
30,
30,
31,
31,
33,
33,
35,
35,
36,
36,
37,
37,
38,
38,
38,
38,
39,
39,
40,
40,
39,
39,
40,
40,
40,
40,
40,
40,
41,
41,
40,
40,
41,
41,
41,
41,
41,
41,
41,
41,
41,
41,
41,
41,
41,
18,
18,
0,
0,
0,
0,
0,
0,
0,
0,
0,
0,
0,
0,
0,
0,
0,
0,
0,
0,
0,
0,
0,
0,
0,
0,
0,
0,
0,
0,
0,
1,
1,
0,
0,
0,
0,
0,
0,
0,
0,
0,
0,
0,
0,
0,
0,
0,
0,
0,
0,
1,
1,
6,
6,
8,
8,
11,
11,
16,
16,
19,
19,
22,
22,
24,
24,
27,
27,
29,
29,
31,
31,
33,
33,
34,
34,
35,
35,
36,
36,
37,
37,
38,
38,
39,
39,
39,
39,
40,
40,
40,
40,
40,
40,
41,
41,
40,
40,
40,
40,
40,
40,
41,
41,
40,
40,
40,
40,
41,
41,
40,
40,
41,
41,
41,
0,
0,
0,
0,
0,
0,
0,
0,
0,
0,
0,
0,
0,
0,
0,
0,
0,
0,
0,
1,
1,
0,
0,
0,
0,
1,
1,
0,
0,
0,
0,
0,
0,
0,
0,
0,
0,
0,
0,
0,
0,
0,
0,
0,
0,
0,
0,
1,
1,
0,
0,
3,
3,
8,
8,
11,
11,
15,
15,
18,
18,
21,
21,
24,
24,
27,
27,
28,
28,
31,
31,
33,
33,
35,
35,
36,
36,
36,
36,
38,
38,
38,
38,
39,
39,
39,
39,
40,
40,
40,
40,
40,
40,
40,
40,
41,
41,
40,
40,
40,
40,
40,
40,
41,
41,
41,
41,
41,
41,
41,
41,
41,
41,
41,
0,
1,
1,
0,
0,
0,
0,
0,
0,
0,
0,
0,
0,
0,
0,
1,
1,
0,
0,
0,
0,
0,
0,
0,
0,
0,
0,
0,
0,
0,
0,
0,
0,
0,
0,
0,
0,
0,
0,
0,
0,
0,
0,
0,
0,
0,
0,
0,
0,
0,
0,
3,
3,
8,
8,
11,
11,
13,
13,
19,
19,
22,
22,
24,
24,
26,
26,
29,
29,
31,
31,
32,
32,
34,
34,
35,
35,
36,
36,
37,
37,
38,
38,
38,
38,
39,
39,
39,
39,
40,
40,
40,
40,
40,
40,
40,
40,
40,
40,
41,
41,
41,
41,
41,
41,
42,
42,
41,
41,
40,
40,
41,
41,
41,
0,
0,
0,
0,
0,
0,
0,
0,
0,
0,
0,
0,
0,
0,
0,
0,
0,
0,
0,
0,
0,
0,
0,
0,
0,
0,
0,
1,
1,
0,
0,
0,
0,
0,
0,
0,
0,
0,
0,
0,
0,
0,
0,
0,
0,
0,
0,
0,
0,
0,
0,
3,
3,
7,
7,
11,
11,
14,
14,
17,
17,
20,
20,
23,
23,
26,
26,
29,
29,
31,
31,
32,
32,
34,
34,
35,
35,
36,
36,
37,
37,
38,
38,
39,
39,
39,
39,
40,
40,
40,
40,
40,
40,
40,
40,
40,
40,
40,
40,
41,
41,
41,
41,
41,
41,
41,
41,
41,
41,
41,
41,
40,
40,
41,
0,
1,
1,
0,
0,
0,
0,
0,
0,
0,
0,
0,
0,
1,
1,
1,
1,
0,
0,
0,
0,
0,
0,
0,
0,
0,
0,
0,
0,
0,
0,
0,
0,
1,
1,
0,
0,
0,
0,
0,
0,
0,
0,
0,
0,
0,
0,
0,
0,
0,
0,
2,
2,
7,
7,
10,
10,
14,
14,
17,
17,
20,
20,
23,
23,
25,
25,
28,
28,
30,
30,
32,
32,
34,
34,
35,
35,
36,
36,
38,
38,
38,
38,
38,
38,
39,
39,
40,
40,
40,
40,
40,
40,
40,
40,
40,
40,
40,
40,
40,
40,
41,
41,
41,
41,
41,
41,
42,
42,
42,
42,
42,
42,
42,
0,
0,
0,
0,
0,
0,
0,
0,
0,
0,
0,
0,
0,
0,
0,
0,
0,
0,
0,
0,
0,
0,
0,
0,
0,
0,
0,
0,
0,
1,
1,
0,
0,
0,
0,
0,
0,
0,
0,
0,
0,
1,
1,
0,
0,
1,
1,
0,
0,
1,
1,
3,
3,
6,
6,
10,
10,
13,
13,
17,
17,
19,
19,
23,
23,
25,
25,
27,
27,
30,
30,
31,
31,
33,
33,
35,
35,
35,
35,
37,
37,
38,
38,
39,
39,
39,
39,
40,
40,
39,
39,
40,
40,
40,
40,
40,
40,
40,
40,
41,
41,
41,
41,
41,
41,
41,
41,
42,
42,
41,
41,
42,
42,
41,
0,
1,
1,
1,
1,
0,
0,
0,
0,
0,
0,
0,
0,
0,
0,
0,
0,
0,
0,
0,
0,
0,
0,
0,
0,
0,
0,
0,
0,
0,
0,
0,
0,
0,
0,
0,
0,
0,
0,
1,
1,
0,
0,
0,
0,
0,
0,
0,
0,
0,
0,
0,
0,
1,
1,
0,
0,
0,
0,
0,
0,
0,
0,
0,
0,
0,
0,
0,
0,
0,
0,
0,
0,
0,
0,
0,
0,
0,
0,
0,
0,
0,
0,
0,
0,
0,
0,
0,
0,
0,
0,
0,
0,
0,
0,
0,
0,
0,
0,
0,
0,
0,
0,
0,
0,
1,
1,
0,
0,
0,
0,
0,
0,
0,
0,
0,
0,
0,
0,
0,
0,
0,
0,
0,
0,
0,
0,
0,
0,
0,
0,
0,
0,
0,
0,
0,
0,
0,
0,
0,
0,
0,
0,
0,
0,
0,
0,
0,
0,
0,
0,
0,
0,
0,
0,
1,
1,
0,
0,
0,
0,
0,
0,
0,
0,
0,
0,
0,
0,
0,
0,
0,
0,
0,
0,
0,
0,
0,
0,
0,
0,
0,
0,
0,
0,
0,
0,
0,
0,
0,
0,
1,
1,
5,
5,
8,
8,
11,
11,
16,
16,
19,
19,
22,
22,
24,
24,
27,
27,
28,
28,
31,
31,
32,
32,
35,
35,
36,
36,
35,
35,
37,
37,
38,
38,
38,
38,
39,
39,
40,
40,
39,
39,
40,
40,
40,
40,
40,
40,
40,
40,
40,
40,
40,
40,
40,
40,
40,
40,
41,
41,
41,
41,
41,
41,
41,
0,
1,
1,
0,
0,
0,
0,
0,
0,
0,
0,
0,
0,
0,
0,
0,
0,
0,
0,
0,
0,
0,
0,
0,
0,
0,
0,
0,
0,
0,
0,
0,
0,
0,
0,
0,
0,
0,
0,
0,
0,
0,
0,
0,
0,
0,
0,
0,
0,
0,
0,
4,
4,
8,
8,
11,
11,
15,
15,
19,
19,
22,
22,
24,
24,
27,
27,
29,
29,
31,
31,
32,
32,
34,
34,
35,
35,
36,
36,
38,
38,
38,
38,
39,
39,
39,
39,
40,
40,
40,
40,
39,
39,
40,
40,
40,
40,
40,
40,
40,
40,
40,
40,
42,
42,
41,
41,
41,
41,
40,
40,
41,
41,
41,
41,
41,
41,
42,
42,
41,
41,
41,
41,
41,
41,
41,
41,
42,
42,
40,
40,
41,
41,
42,
42,
42,
42,
42,
42,
42,
42,
42,
42,
41,
41,
42,
42,
42,
42,
41,
41,
42,
42,
42,
42,
41,
41,
41,
41,
42,
42,
42,
42,
41,
41,
41,
41,
41,
41,
41,
41,
41,
41,
42,
42,
41,
41,
41,
41,
42,
42,
41,
41,
42,
42,
41,
41,
41,
41,
41,
41,
41,
41,
41,
41,
41,
41,
42,
42,
41,
41,
41,
41,
42,
42,
41,
41,
41,
41,
42,
42,
41,
41,
42,
42,
42,
42,
42,
42,
41,
41,
41,
41,
41,
41,
41,
41,
41,
41,
41,
41,
41,
41,
41,
41,
42,
42,
41,
41,
41,
41,
42,
42,
41,
41,
41,
41,
41,
41,
41,
41,
41,
41,
41,
41,
41,
41,
41,
41,
42,
42,
41,
41,
41,
41,
42,
42,
41,
41,
41,
41,
41,
41,
42,
42,
42,
42,
42,
42,
41,
41,
42,
42,
41,
41,
42,
42,
41,
41,
41,
41,
41,
41,
41,
41,
41,
41,
42,
42,
42,
42,
41,
41,
41,
41,
41,
41,
41,
41,
41,
41,
41,
41,
41,
41,
42,
42,
42,
42,
41,
41,
41,
41,
41,
41,
41,
41,
41,
41,
41,
41,
41,
41,
41,
41,
42,
42,
41,
41,
42,
42,
41,
41,
41,
41,
41,
41,
41,
41,
41,
41,
42,
42,
42,
42,
42,
42,
41,
41,
42,
42,
42,
42,
42,
42,
41,
41,
41,
41,
41,
41,
41,
41,
41,
41,
42,
42,
41,
41,
41,
41,
41,
41,
41,
41,
41,
41,
41,
41,
41,
41,
41,
41,
41,
41,
41,
41,
40,
40,
41,
41,
41,
41,
41,
41,
42,
42,
40,
40,
42,
42,
41,
41,
41,
41,
42,
42,
41,
41,
41,
41,
41,
41,
41,
41,
41,
41,
42,
42,
41,
41,
41,
41,
41,
41,
41,
41,
41,
41,
42,
42,
41,
41,
41,
41,
41,
41,
41,
41,
41,
41,
41,
41,
41,
41,
41,
41,
41,
41,
42,
42,
41,
41,
42,
42,
42,
42,
41,
41,
42,
42,
41,
41,
40,
40,
41,
41,
41,
41,
42,
42,
41,
41,
42,
42,
42,
42,
41,
41,
42,
42,
42,
42,
42,
42,
41,
41,
42,
42,
42,
42,
42,
42,
41,
41,
42,
42,
42,
42,
41,
41,
41,
41,
41,
41,
42,
42,
42,
42,
42,
42,
41,
41,
42,
42,
42,
42,
41,
41,
41,
41,
41,
41,
41,
41,
41,
41,
42,
42,
41,
41,
41,
41,
42,
42,
41,
41,
41,
41,
41,
41,
41,
41,
42,
42,
42,
42,
42,
42,
41,
41,
41,
41,
41,
41,
42,
42,
42,
42,
41,
41,
41,
41,
42,
42,
41,
41,
42,
42,
41,
41,
42,
42,
42,
42,
41,
41,
41,
41,
41,
41,
41,
41,
41,
41,
42,
42,
42,
42,
42,
42,
42,
42,
42,
42,
42,
42,
41,
41,
42,
42,
41,
41,
41,
41,
42,
42,
41,
41,
41,
41,
42,
42,
42,
42,
41,
41,
41,
41,
41,
41,
41,
41,
42,
42,
41,
41,
41,
41,
41,
41,
42,
42,
42,
42,
42,
42,
41,
41,
41,
41,
41,
41,
41,
41,
42,
42,
41,
41,
41,
41,
42,
42,
41,
41,
41,
41,
41,
41,
42,
42,
41,
41,
41,
41,
41,
41,
41,
41,
42,
42,
41,
41,
42,
42,
41,
41,
41,
41,
41,
41,
42,
42,
41,
41,
41,
41,
41,
41,
41,
41,
41,
41,
42,
42,
41,
41,
42,
42,
41,
41,
41,
41,
42,
42,
41,
41,
42,
42,
41,
41,
41,
41,
40,
40,
42,
42,
41,
41,
42,
42,
41,
41,
42,
42,
41,
41,
42,
42,
42,
42,
42,
42,
42,
42,
41,
41,
41,
41,
41,
41,
41,
41,
41,
41,
41,
41,
41,
41,
42,
42,
42,
42,
41,
41,
42,
42,
41,
41,
42,
42,
41,
41,
42,
42,
41,
41,
41,
41,
42,
42,
42,
42,
41,
41,
41,
41,
42,
42,
41,
41,
42,
42,
42,
42,
41,
41,
41,
41,
42,
42,
41,
41,
41,
41,
41,
41,
41,
41,
42,
42,
41,
41,
42,
42,
41,
41,
41,
41,
41,
41,
42,
42,
40,
40,
41,
41,
41,
41,
41,
41,
41,
41,
41,
41,
41,
41,
40,
40,
41,
41,
41,
41,
41,
41,
41,
41,
41,
41,
41,
41,
42,
42,
41,
41,
41,
41,
41,
41,
41,
41,
41,
41,
41,
41,
41,
41,
42,
42,
42,
42,
42,
42,
42,
42,
42,
42,
41,
41,
41,
41,
42,
42,
41,
